[{
	"language": "es",
	"caption": "DOMICILIO",
	"data": {
		"address": {
			"text": "Dirección:", "placeholder": "Escriba su dirección", "pattern": ".{1,}", "warning": "Texto"
		},
		"neighbor": {
			"text": "Colonia:", "placeholder": "Escriba su colonia", "pattern": ".{1,}", "warning": "Texto"
		},
		"zipCode": {
			"text": "Código Postal:", "placeholder": "Escriba su código postal", "pattern": "[A-Za-z0-9]{1,}", "warning": "Sólo letras y números"
		},
		"city": {
			"text": "Ciudad:", "placeholder": "Escriba su ciudad", "pattern": ".{1,}", "warning": "Texto"
		},
		"county": {
			"text": "Municipio:", "placeholder": "Escriba su municipio", "pattern": ".{1,}", "warning": "Texto"
		},
		"state": {
			"text": "Estado:", "placeholder": "Escriba su estado", "pattern": ".{1,}", "warning": "Texto"
		},
		"country": {
			"text": "País:", "placeholder": "", "pattern": "[0-9]{1,}",
			"options": [
			    {"value": "", "text": "Seleccione su país:", "label": ""},
			    {"value": "1", "text": "México", "label": "MX"},
			    {"value": "2", "text": "Colombia", "label": "CO"},
			    {"value": "3", "text": "Argentina", "label": "AR"},
			    {"value": "4", "text": "Costa Rica", "label": "CR"},
			    {"value": "5", "text": "Estados Unidos", "label": "US"}
			]
		}
	}
},
{
	"language": "en",
	"caption": "ADDRESS",
	"data": {
		"address": {
			"text": "Address:", "placeholder": "Type your address", "pattern": ".{1,}", "warning": "Text"
		},
		"neighbor": {
			"text": "Neighbor:", "placeholder": "Type your neighbor", "pattern": ".{1,}", "warning": "Text"
		},
		"zipCode": {
			"text": "Zip Code:", "placeholder": "Type your zip code", "pattern": "[A-Za-z0-9]{1,}", "warning": "Only alphabetic and numbers"
		},
		"city": {
			"text": "City:", "placeholder": "Type your city", "pattern": ".{1,}", "warning": "Text"
		},
		"county": {
			"text": "County:", "placeholder": "Type your county", "pattern": ".{1,}", "warning": "Text"
		},
		"state": {
			"text": "State:", "placeholder": "Type your state", "pattern": ".{1,}", "warning": "Text"
		},
		"country": {
			"text": "Country:", "placeholder": "", "pattern": "[0-9]{1,}",
			"options": [
			    {"value": "", "text": "Select your country:", "label": ""},
			    {"value": "1", "text": "Mexico", "label": "MX"},
			    {"value": "2", "text": "Colombia", "label": "CO"},
			    {"value": "3", "text": "Argentina", "label": "AR"},
			    {"value": "4", "text": "Costa Rica", "label": "CR"},
			    {"value": "5", "text": "United States", "label": "US"}
			]
		}
	}
}]